year, Num of households
0,13
1,14
2,14
3,14
4,14
5,14
6,14
7,14
8,14
9,14
10,14
11,14
12,14
13,14
14,14
15,15
16,19
17,20
18,20
19,20
20,22
21,25
22,27
23,30
24,31
25,31
26,32
27,33
28,37
29,37
30,37
31,37
32,26
33,26
34,26
35,27
36,29
37,30
38,33
39,37
40,40
41,43
42,44
43,45
44,49
45,52
46,54
47,56
48,58
49,56
50,56
51,56
52,60
53,59
54,59
55,60
56,61
57,62
58,66
59,67
60,69
61,68
62,72
63,77
64,81
65,84
66,86
67,90
68,93
69,94
70,94
71,94
72,91
73,89
74,91
75,95
76,97
77,96
78,98
79,103
80,108
81,107
82,110
83,116
84,121
85,127
86,135
87,139
88,144
89,146
90,148
91,146
92,152
93,157
94,163
95,165
96,167
97,175
98,178
99,180
100,185
101,193
102,198
103,211
104,218
105,227
106,237
107,244
108,247
109,248
110,263
111,271
112,279
113,285
114,296
115,305
116,316
117,325
118,331
119,333
120,344
121,351
122,363
123,372
124,337
125,349
126,354
127,358
128,367
129,372
130,329
131,341
132,353
133,365
134,378
135,313
136,331
137,343
138,353
139,361
140,366
141,381
142,400
143,299
144,305
145,309
146,315
147,327
148,332
149,341
150,351
151,285
152,292
153,298
154,276
155,284
156,295
157,268
158,276
159,283
160,293
161,305
162,313
163,318
164,260
165,266
166,275
167,287
168,251
169,244
170,254
171,259
172,239
173,244
174,247
175,222
176,233
177,241
178,220
179,228
180,210
181,217
182,220
183,211
184,217
185,223
186,232
187,238
188,243
189,251
190,262
191,205
192,193
193,191
194,205
195,212
196,226
197,229
198,232
199,236
200,238
201,251
202,260
203,275
204,283
205,291
206,297
207,310
208,313
209,306
210,316
211,328
212,339
213,359
214,365
215,383
216,397
217,406
218,417
219,422
220,430
221,435
222,441
223,450
224,481
225,502
226,518
227,526
228,540
229,552
230,570
231,579
232,593
233,615
234,624
235,637
236,647
237,660
238,672
239,691
240,705
241,747
242,773
243,793
244,802
245,817
246,831
247,859
248,879
249,893
250,922
251,940
252,974
253,1007
254,1040
255,1071
256,1101
257,1126
258,1160
259,1198
260,1225
261,1261
262,1249
263,1206
264,1159
265,1132
266,1095
267,1067
268,1020
269,981
270,942
271,906
272,883
273,853
274,800
275,745
276,701
277,679
278,625
279,598
280,543
281,502
282,454
283,426
284,389
285,352
286,304
287,272
288,229
289,195
290,149
291,98
292,55
293,14
294,0
295,0
296,0
297,0
298,0
299,0
300,0
301,0
302,0
303,0
304,0
305,0
306,0
307,0
308,0
309,0
310,0
311,0
312,0
313,0
314,0
315,0
316,0
317,0
318,0
319,0
320,0
321,0
322,0
323,0
324,0
325,0
326,0
327,0
328,0
329,0
330,0
331,0
332,0
333,0
334,0
335,0
336,0
337,0
338,0
339,0
340,0
341,0
342,0
343,0
344,0
345,0
346,0
347,0
348,0
349,0
350,0
351,0
352,0
353,0
354,0
355,0
356,0
357,0
358,0
359,0
360,0
361,0
362,0
363,0
364,0
365,0
366,0
367,0
368,0
369,0
370,0
371,0
372,0
373,0
374,0
375,0
376,0
377,0
378,0
379,0
380,0
381,0
382,0
383,0
384,0
385,0
386,0
387,0
388,0
389,0
390,0
391,0
392,0
393,0
394,0
395,0
396,0
397,0
398,0
399,0
400,0
401,0
402,0
403,0
404,0
405,0
406,0
407,0
408,0
409,0
410,0
411,0
412,0
413,0
414,0
415,0
416,0
417,0
418,0
419,0
420,0
421,0
422,0
423,0
424,0
425,0
426,0
427,0
428,0
429,0
430,0
431,0
432,0
433,0
434,0
435,0
436,0
437,0
438,0
439,0
440,0
441,0
442,0
443,0
444,0
445,0
446,0
447,0
448,0
449,0
450,0
451,0
452,0
453,0
454,0
455,0
456,0
457,0
458,0
459,0
460,0
461,0
462,0
463,0
464,0
465,0
466,0
467,0
468,0
469,0
470,0
471,0
472,0
473,0
474,0
475,0
476,0
477,0
478,0
479,0
480,0
481,0
482,0
483,0
484,0
485,0
486,0
487,0
488,0
489,0
490,0
491,0
492,0
493,0
494,0
495,0
496,0
497,0
498,0
499,0
500,0
501,0
502,0
503,0
504,0
505,0
506,0
507,0
508,0
509,0
510,0
511,0
512,0
513,0
514,0
515,0
516,0
517,0
518,0
519,0
520,0
521,0
522,0
523,0
524,0
525,0
526,0
527,0
528,0
529,0
530,0
531,0
532,0
533,0
534,0
535,0
536,0
537,0
538,0
539,0
540,0
541,0
542,0
543,0
544,0
545,0
546,0
547,0
548,0
549,0
