year, Num of households
0,50,
1,51,
2,51,
3,51,
4,51,
5,51,
6,51,
7,51,
8,51,
9,51,
10,51,
11,51,
12,51,
13,51,
14,51,
15,57,
16,63,
17,70,
18,74,
19,82,
20,90,
21,96,
22,99,
23,102,
24,109,
25,112,
26,118,
27,121,
28,128,
29,133,
30,133,
31,134,
32,135,
33,138,
34,138,
35,143,
36,153,
37,160,
38,167,
39,175,
40,182,
41,187,
42,192,
43,201,
44,215,
45,225,
46,232,
47,244,
48,252,
49,207,
50,211,
51,220,
52,230,
53,236,
54,243,
55,251,
56,260,
57,271,
58,283,
59,298,
60,305,
61,317,
62,326,
63,343,
64,362,
65,368,
66,380,
67,388,
68,398,
69,411,
70,413,
71,418,
72,432,
73,445,
74,458,
75,471,
76,488,
77,501,
78,510,
79,523,
80,535,
81,558,
82,572,
83,598,
84,623,
85,635,
86,649,
87,662,
88,677,
89,695,
90,706,
91,730,
92,756,
93,766,
94,781,
95,804,
96,827,
97,852,
98,869,
99,900,
100,938,
101,958,
102,984,
103,1014,
104,1042,
105,1077,
106,1104,
107,1134,
108,1166,
109,1186,
110,1222,
111,1258,
112,1298,
113,1348,
114,1380,
115,1417,
116,1446,
117,1473,
118,1526,
119,1564,
120,1607,
121,1657,
122,1699,
123,1748,
124,1792,
125,1856,
126,1898,
127,1947,
128,2005,
129,2078,
130,2088,
131,2015,
132,1959,
133,1916,
134,1870,
135,1810,
136,1759,
137,1691,
138,1663,
139,1626,
140,1584,
141,1526,
142,1483,
143,1424,
144,1371,
145,1329,
146,1288,
147,1217,
148,1193,
149,1151,
150,1116,
151,1061,
152,1039,
153,979,
154,932,
155,896,
156,861,
157,819,
158,785,
159,757,
160,727,
161,695,
162,663,
163,611,
164,576,
165,542,
166,513,
167,486,
168,441,
169,403,
170,365,
171,329,
172,293,
173,250,
174,209,
175,159,
176,119,
177,75,
178,32,
179,0,
180,0,
181,0,
182,0,
183,0,
184,0,
185,0,
186,0,
187,0,
188,0,
189,0,
190,0,
191,0,
192,0,
193,0,
194,0,
195,0,
196,0,
197,0,
198,0,
199,0,
200,0,
201,0,
202,0,
203,0,
204,0,
205,0,
206,0,
207,0,
208,0,
209,0,
210,0,
211,0,
212,0,
213,0,
214,0,
215,0,
216,0,
217,0,
218,0,
219,0,
220,0,
221,0,
222,0,
223,0,
224,0,
225,0,
226,0,
227,0,
228,0,
229,0,
230,0,
231,0,
232,0,
233,0,
234,0,
235,0,
236,0,
237,0,
238,0,
239,0,
240,0,
241,0,
242,0,
243,0,
244,0,
245,0,
246,0,
247,0,
248,0,
249,0,
250,0,
251,0,
252,0,
253,0,
254,0,
255,0,
256,0,
257,0,
258,0,
259,0,
260,0,
261,0,
262,0,
263,0,
264,0,
265,0,
266,0,
267,0,
268,0,
269,0,
270,0,
271,0,
272,0,
273,0,
274,0,
275,0,
276,0,
277,0,
278,0,
279,0,
280,0,
281,0,
282,0,
283,0,
284,0,
285,0,
286,0,
287,0,
288,0,
289,0,
290,0,
291,0,
292,0,
293,0,
294,0,
295,0,
296,0,
297,0,
298,0,
299,0,
300,0,
301,0,
302,0,
303,0,
304,0,
305,0,
306,0,
307,0,
308,0,
309,0,
310,0,
311,0,
312,0,
313,0,
314,0,
315,0,
316,0,
317,0,
318,0,
319,0,
320,0,
321,0,
322,0,
323,0,
324,0,
325,0,
326,0,
327,0,
328,0,
329,0,
330,0,
331,0,
332,0,
333,0,
334,0,
335,0,
336,0,
337,0,
338,0,
339,0,
340,0,
341,0,
342,0,
343,0,
344,0,
345,0,
346,0,
347,0,
348,0,
349,0,
350,0,
351,0,
352,0,
353,0,
354,0,
355,0,
356,0,
357,0,
358,0,
359,0,
360,0,
361,0,
362,0,
363,0,
364,0,
365,0,
366,0,
367,0,
368,0,
369,0,
370,0,
371,0,
372,0,
373,0,
374,0,
375,0,
376,0,
377,0,
378,0,
379,0,
380,0,
381,0,
382,0,
383,0,
384,0,
385,0,
386,0,
387,0,
388,0,
389,0,
390,0,
391,0,
392,0,
393,0,
394,0,
395,0,
396,0,
397,0,
398,0,
399,0,
400,0,
401,0,
402,0,
403,0,
404,0,
405,0,
406,0,
407,0,
408,0,
409,0,
410,0,
411,0,
412,0,
413,0,
414,0,
415,0,
416,0,
417,0,
418,0,
419,0,
420,0,
421,0,
422,0,
423,0,
424,0,
425,0,
426,0,
427,0,
428,0,
429,0,
430,0,
431,0,
432,0,
433,0,
434,0,
435,0,
436,0,
437,0,
438,0,
439,0,
440,0,
441,0,
442,0,
443,0,
444,0,
445,0,
446,0,
447,0,
448,0,
449,0,
450,0,
451,0,
452,0,
453,0,
454,0,
455,0,
456,0,
457,0,
458,0,
459,0,
460,0,
461,0,
462,0,
463,0,
464,0,
465,0,
466,0,
467,0,
468,0,
469,0,
470,0,
471,0,
472,0,
473,0,
474,0,
475,0,
476,0,
477,0,
478,0,
479,0,
480,0,
481,0,
482,0,
483,0,
484,0,
485,0,
486,0,
487,0,
488,0,
489,0,
490,0,
491,0,
492,0,
493,0,
494,0,
495,0,
496,0,
497,0,
498,0,
499,0,
500,0,
501,0,
502,0,
503,0,
504,0,
505,0,
506,0,
507,0,
508,0,
509,0,
510,0,
511,0,
512,0,
513,0,
514,0,
515,0,
516,0,
517,0,
518,0,
519,0,
520,0,
521,0,
522,0,
523,0,
524,0,
525,0,
526,0,
527,0,
528,0,
529,0,
530,0,
531,0,
532,0,
533,0,
534,0,
535,0,
536,0,
537,0,
538,0,
539,0,
540,0,
541,0,
542,0,
543,0,
544,0,
545,0,
546,0,
547,0,
548,0,
549,0,
